{"count":352,"next":"https://lldev.thespacedevs.com/2.2.0/launch/upcoming/?format=json&hide_recent_previous=true&limit=5&mode=list&offset=5&ordering=desc","previous":null,"results":[{"id":"b76b836f-8e88-4bc3-a3bc-36bb8ee4bb3c","url":"https://lldev.thespacedevs.com/2.2.0/launch/b76b836f-8e88-4bc3-a3bc-36bb8ee4bb3c/?format=json","slug":"falcon-9-block-5-starlink-group-8-1","name":"Falcon 9 Block 5 | Starlink Group 8-1","status":{"id":2,"name":"To Be Determined","abbrev":"TBD","description":"Current date is a placeholder or rough estimation based on unreliable or interpreted sources."},"last_updated":"2024-03-29T03:17:00Z","net":"2024-04-04T00:00:00Z","net_precision":{"id":5,"name":"Day","abbrev":"DAY","description":"The T-0 is expected on the given day."},"window_end":"2024-04-04T00:00:00Z","window_start":"2024-04-04T00:00:00Z","lsp_name":"SpaceX","mission":"Starlink Group 8-1","mission_type":"Communications","pad":"Space Launch Complex 4E","location":"Vandenberg SFB, CA, USA","landing":"OCISLY","landing_success":0,"launcher":"Unknown F9","orbit":"LEO","image":"https://spacelaunchnow-prod-east.nyc3.digitaloceanspaces.com/media/images/falcon2520925_image_20221009234147.png","infographic":null,"type":"list"},{"id":"d90ac995-1d5d-48d6-8339-7ab42c567449","url":"https://lldev.thespacedevs.com/2.2.0/launch/d90ac995-1d5d-48d6-8339-7ab42c567449/?format=json","slug":"falcon-9-block-5-starlink-group-6-47","name":"Falcon 9 Block 5 | Starlink Group 6-47","status":{"id":2,"name":"To Be Determined","abbrev":"TBD","description":"Current date is a placeholder or rough estimation based on unreliable or interpreted sources."},"last_updated":"2024-03-30T01:35:06Z","net":"2024-04-05T00:00:00Z","net_precision":{"id":5,"name":"Day","abbrev":"DAY","description":"The T-0 is expected on the given day."},"window_end":"2024-04-05T00:00:00Z","window_start":"2024-04-05T00:00:00Z","lsp_name":"SpaceX","mission":"Starlink Group 6-47","mission_type":"Communications","pad":"Space Launch Complex 40","location":"Cape Canaveral, FL, USA","landing":"N/A","landing_success":0,"launcher":"Unknown F9","orbit":"LEO","image":"https://spacelaunchnow-prod-east.nyc3.digitaloceanspaces.com/media/images/falcon2520925_image_20221009234147.png","infographic":null,"type":"list"},{"id":"c6344720-1266-4697-90ab-943a6f1760a5","url":"https://lldev.thespacedevs.com/2.2.0/launch/c6344720-1266-4697-90ab-943a6f1760a5/?format=json","slug":"falcon-9-block-5-bandwagon-1-dedicated-mid-inclina","name":"Falcon 9 Block 5 | Bandwagon 1 (Dedicated Mid-Inclination Rideshare)","status":{"id":8,"name":"To Be Confirmed","abbrev":"TBC","description":"Awaiting official confirmation - current date is known with some certainty."},"last_updated":"2024-03-31T09:07:51Z","net":"2024-04-07T23:17:00Z","net_precision":{"id":1,"name":"Minute","abbrev":"MIN","description":"The T-0 is accurate to the minute."},"window_end":"2024-04-07T23:17:00Z","window_start":"2024-04-07T23:17:00Z","lsp_name":"SpaceX","mission":"Bandwagon 1 (Dedicated Mid-Inclination Rideshare)","mission_type":"Dedicated Rideshare","pad":"Launch Complex 39A","location":"Kennedy Space Center, FL, USA","landing":"LZ-1","landing_success":0,"launcher":"Unknown F9","orbit":"LEO","image":"https://spacelaunchnow-prod-east.nyc3.digitaloceanspaces.com/media/images/falcon_9_image_20230807133459.jpeg","infographic":null,"type":"list"},{"id":"a32fa9ec-7925-4698-bbc7-a7ed1ad12621","url":"https://lldev.thespacedevs.com/2.2.0/launch/a32fa9ec-7925-4698-bbc7-a7ed1ad12621/?format=json","slug":"delta-iv-heavy-nrol-70","name":"Delta IV Heavy | NROL-70","status":{"id":8,"name":"To Be Confirmed","abbrev":"TBC","description":"Awaiting official confirmation - current date is known with some certainty."},"last_updated":"2024-03-31T15:36:35Z","net":"2024-04-08T16:57:00Z","net_precision":{"id":1,"name":"Minute","abbrev":"MIN","description":"The T-0 is accurate to the minute."},"window_end":"2024-04-08T22:51:00Z","window_start":"2024-04-08T16:57:00Z","lsp_name":"United Launch Alliance","mission":"NROL-70","mission_type":"Government/Top Secret","pad":"Space Launch Complex 37B","location":"Cape Canaveral, FL, USA","landing":null,"landing_success":null,"launcher":null,"orbit":"N/A","image":"https://spacelaunchnow-prod-east.nyc3.digitaloceanspaces.com/media/images/slc-37b_image_20240329083424.jpeg","infographic":null,"type":"list"},{"id":"1b8e6f37-c703-4e48-b160-470ffe5ecb26","url":"https://lldev.thespacedevs.com/2.2.0/launch/1b8e6f37-c703-4e48-b160-470ffe5ecb26/?format=json","slug":"angara-a5blok-dm-03-vostochny-angara-test-flight","name":"Angara A5/Blok DM-03 | Vostochny Angara Test Flight","status":{"id":2,"name":"To Be Determined","abbrev":"TBD","description":"Current date is a placeholder or rough estimation based on unreliable or interpreted sources."},"last_updated":"2024-03-27T13:24:53Z","net":"2024-04-09T00:00:00Z","net_precision":{"id":5,"name":"Day","abbrev":"DAY","description":"The T-0 is expected on the given day."},"window_end":"2024-04-09T00:00:00Z","window_start":"2024-04-09T00:00:00Z","lsp_name":"Khrunichev State Research and Production Space Center","mission":"Vostochny Angara Test Flight","mission_type":"Test Flight","pad":"Cosmodrome Site 1A","location":"Vostochny Cosmodrome, Siberia, Russian Federation","landing":null,"landing_success":null,"launcher":null,"orbit":"N/A","image":"https://spacelaunchnow-prod-east.nyc3.digitaloceanspaces.com/media/images/angara_a52fper_image_20211227193648.jpg","infographic":null,"type":"list"}]}